<?xml version="1.0" encoding="utf-8"?>
<!-- Generator: Adobe Illustrator 17.0.0, SVG Export Plug-In . SVG Version: 6.00 Build 0)  -->
<!DOCTYPE svg PUBLIC "-//W3C//DTD SVG 1.1//EN" "http://www.w3.org/Graphics/SVG/1.1/DTD/svg11.dtd">
<svg version="1.1" id="Layer_1" xmlns="http://www.w3.org/2000/svg" xmlns:xlink="http://www.w3.org/1999/xlink" x="0px" y="0px"
	 width="23px" height="26px" viewBox="0 0 23 26" enable-background="new 0 0 23 26" xml:space="preserve">
<path fill-rule="evenodd" clip-rule="evenodd" fill="none" d="M11.5,23.6556988c-6.3513002,0-11.5-5.2954998-11.5-11.827899
	C0,5.2954998,5.1486998,0,11.5,0S23,5.2954998,23,11.8277998C23,18.360199,17.8512993,23.6556988,11.5,23.6556988z M11.5,4.6884999
	c-3.8336,0-6.9414001,3.1963997-6.9414001,7.1392999c0,3.9429998,3.1078,7.1393995,6.9414001,7.1393995
	c3.8336992,0,6.9414997-3.1963997,6.9414997-7.1393995C18.4414997,7.8848996,15.3336992,4.6884999,11.5,4.6884999z
	 M18.8558998,5.3277998c-0.4577007,0-0.8288002,0.3817-0.8288002,0.8525s0.3710995,0.8523998,0.8288002,0.8523998
	c0.4577999,0,0.8288002-0.3815999,0.8288002-0.8523998S19.3136997,5.3277998,18.8558998,5.3277998z M11.5,6.1802998
	c-3.0325003,0-5.4910002,2.5284996-5.4910002,5.6475c0,3.1190996,2.4584999,5.6475,5.4910002,5.6475
	c3.0325994,0,5.4911003-2.5284004,5.4911003-5.6475C16.9911003,8.7087994,14.5325994,6.1802998,11.5,6.1802998z M11.5,16.6229
	c-2.5748005,0-4.6621003-2.1468-4.6621003-4.7951002c0-2.6482,2.0872998-4.7951002,4.6621003-4.7951002
	c2.5748997,0,4.662199,2.1469002,4.662199,4.7951002C16.162199,14.4761,14.0748997,16.6229,11.5,16.6229z M10.7747993,8.0983
	c-1.2431993,0-2.7000999,1.4984999-2.6936998,2.5573997c0,0.3530998,0.2783003,0.6393003,0.6217003,0.6393003
	c0.3432999,0,0.6215-0.2862005,0.6215-0.6393003c-0.0064001-0.6459999,0.8353996-1.2786999,1.4504995-1.2786999
	c0.3433008,0,0.6216002-0.2862005,0.6216002-0.6393003S11.1181002,8.0983,10.7747993,8.0983z M11.5,24.7213001
	c2.6590996,0,5.1232986-0.8536015,7.1520004-2.3059006C19.1786995,23.4963989,20.3974991,24.7122993,20.3974991,26
	C18.2160988,25.9909992,6.7465,25.9967995,2.6025999,26c0-1.2875004,1.2177-2.5038013,1.7443001-3.5846996
	C6.3755999,23.868,8.8406,24.7213001,11.5,24.7213001z"/>
</svg>
