<?xml version="1.0" encoding="utf-8"?>
<!-- Generator: Adobe Illustrator 17.0.0, SVG Export Plug-In . SVG Version: 6.00 Build 0)  -->
<!DOCTYPE svg PUBLIC "-//W3C//DTD SVG 1.1//EN" "http://www.w3.org/Graphics/SVG/1.1/DTD/svg11.dtd">
<svg version="1.1" id="Layer_1" xmlns="http://www.w3.org/2000/svg" xmlns:xlink="http://www.w3.org/1999/xlink" x="0px" y="0px"
	 width="10px" height="12.994px" viewBox="0 0 10 12.994" enable-background="new 0 0 10 12.994" xml:space="preserve">
<path fill-rule="evenodd" clip-rule="evenodd" fill="none" d="M5,12.995c0,0-5-3.73-5-8.044C0,2.216,2.239,0,5,0s5,2.216,5,4.95
	C10,9.365,5,12.995,5,12.995z M8.495,4.996C8.495,3.062,6.93,1.493,5,1.493c-1.93,0-3.495,1.568-3.495,3.503S3.07,8.5,5,8.5
	C6.93,8.5,8.495,6.931,8.495,4.996z M4.5,5.498h-2L7,2.999L4.5,7.497V5.498z"/>
</svg>
